Project 1: Wrangling, Exploration, Visualization
…
# In 2010, Brazil had a GDP growth of 7.534 and they won 3
# matches in the WC

# Select
proj_join <- proj_join %>% select(1:3, 8, 9, 10, everything())
proj_join <- proj_join %>% select(-11)

# Summarize
proj_join %>% group_by(Country) %>% summarize(homegoalsavg = mean(Home_Team_Goals)) %>% 
    arrange(desc(homegoalsavg))

## # A tibble: 44 x 2
##    Country homegoalsavg
##    <chr>          <dbl>
##  1 tur             8   
##  2 hun             5.89
##  3 rus             5.5 
##  4 aut             3.46
##  5 per             3.4 
##  6 fra             3.27
##  7 bra             3.22
##  8 arg             3.10
##  9 sen             3   
## 10 swe             2.81
## #  with 34 more rows
…
# For Brazil, their average absolute GDP Change over the
# years that they've played in the world cup is 21.54
proj_join %>% summarize(median(Year))

## # A tibble: 1 x 1
##   `median(Year)`
##            <dbl>
## 1           1986

# The median year of the dataset is 1986
proj_join %>% group_by(Country) %>% summarize(sd(Home_Team_Goals))

## # A tibble: 44 x 2
##    Country `sd(Home_Team_Goals)`
##    <chr>                   <dbl>
##  1 arg                      2.35
##  2 aus                      1.5 
##  3 aut                      3.38
##  4 bel                      1.46
##  5 bol                     NA   
##  6 bra                      2.44
##  7 can                     NA   
##  8 chn                     NA   
##  9 civ                      2.83
## 10 cmr                      1   
## #  with 34 more rows
# Turkey which had the highest average for goals as a home
# team had a standard deviation of 4.24 indicating that they
# varied significantly over the years in performance
proj_join %>% group_by(Country) %>% summarize(frequency = n()) %>% 
    slice_max(frequency)

## # A tibble: 1 x 2
##   Country frequency
##   <chr>       <int>
## 1 bra            72

# Brazil appears the most often in the dataset
proj_join %>% group_by(Country, Year) %>% summarize(cumsum(`GDP Yearly Growth`))

## # A tibble: 452 x 3
## # Groups:   Country, Year [196]
##    Country  Year `cumsum(\`GDP Yearly Growth\`)`
##    <chr>   <dbl>                           <dbl>
##  1 arg      1930                          -4.44 
##  2 arg      1930                          -8.88 
##  3 arg      1930                         -13.3  
##  4 arg      1930                         -17.8  
##  5 arg      1958                           6.18 
##  6 arg      1958                          12.4  
##  7 arg      1962                          -1.62 
##  8 arg      1966                           0.619
##  9 arg      1966                           1.24 
## 10 arg      1974                           5.48 
## #  with 442 more rows
…
